Driver_Maximum_Age
0         1
15        1
16     2260
17     3000
18     3451
19     3757
20     3739
21     3937
22     3934
23     4082
24     4062
25     4677
26     5295
27     5407
28     5731
29     5974
30     5925
31     6370
32     6958
33     7573
34     7970
35     8729
36     8770
37     9042
38     8855
39     9250
40     9541
41    10347
42    10546
43    10551
44    10319
45    10526
46    10603
47    10070
48    10328
49    10416
50    10056
51     9644
52     9520
53     9058
54     8545
55     8619
56     8399
57     8272
58     8236
59     8367
60     6502
61     6344
62     6283
63     6428
64     5651
65     5262
66     5189
67     4753
68     4538
69     4301
70     3952
71     3728
72     3329
73     3046
74     2937
75     2751
76     2478
77     2128
78     2051
79     1862
80     1725
81     1476
82     1277
83     1162
84     1008
85      834
86      709
87      546
88      374
89      319
90      257
91      168
92      109
93       88
94       61
95       23
96       30
97       13
98       10
99       16
dtype: int64
--------------------------------------------------------------
