Vehicle_Bodily_Injury_Limit
100-300    130255
100-500       502
1M-1M          42
25-50      145145
250-500     21757
300-500       617
50-100     107950
500-500       837
dtype: int64
--------------------------------------------------------------
