K-Features,Var_Score,RMSE
1,0.003302497,2077.138751
4,0.002095186,2078.396401
7,0.001592836,2078.919472
10,-0.012130521,2093.158345
13,0.005294254,2075.062281
16,0.005335263,2075.019506
19,0.003314574,2077.126166
22,0.003547437,2076.883505
25,-0.001424127,2082.058118
28,0.00537693,2074.976044
31,0.005394358,2074.957864
34,0.000719498,2079.828522
37,0.004490557,2075.900411
40,0.002169497,2078.319014
43,0.00526498,2075.092815
46,0.002985704,2077.468826
49,0.002017378,2078.477428
52,-0.001142754,2081.765596
55,0.003121767,2077.327064
58,0.003078119,2077.372542
